7 m_usage 0.98 551
7 m_usage 0.88 477
7 m_usage 0.99 303
7 m_usage 1.0 1560
7 m_usage 0.89 472
7 m_usage 0.97 3897
7 m_usage 0.88 477
7 m_usage 0.98 3918
7 m_usage 0.89 404
7 m_usage 0.98 3918
7 m_usage 0.89 472
7 m_usage 0.97 1856
