0 m_usage 0.96 500
0 m_usage 0.83 361
0 m_usage 0.87 552
0 m_usage 0.85 988
0 m_usage 0.96 750
0 m_usage 0.85 1624
0 m_usage 0.97 804
0 m_usage 0.85 1765
0 m_usage 0.96 688
0 m_usage 0.83 361
0 m_usage 0.85 1412
0 m_usage 0.95 758
0 m_usage 0.84 357
0 m_usage 0.86 1326
0 m_usage 0.95 758
0 m_usage 0.82 366
0 m_usage 0.85 1341
0 m_usage 0.96 750
0 m_usage 0.83 361
0 m_usage 0.86 1326
0 m_usage 0.97 742
0 m_usage 0.84 357
0 m_usage 0.87 1310
0 m_usage 0.98 735
0 m_usage 0.84 357
0 m_usage 0.86 1326
0 m_usage 0.97 742
0 m_usage 0.84 429
0 m_usage 0.86 1326
0 m_usage 0.96 750
0 m_usage 0.86 1744
0 m_usage 0.97 742
0 m_usage 0.84 357
0 m_usage 0.85 1341
0 m_usage 0.97 742
0 m_usage 0.84 357
0 m_usage 0.86 1326
0 m_usage 0.98 735
0 m_usage 0.84 357
0 m_usage 0.86 1326
0 m_usage 0.97 742
0 m_usage 0.84 357
0 m_usage 0.87 1310
0 m_usage 0.97 742
0 m_usage 0.84 357
0 m_usage 0.87 1379
0 m_usage 0.97 742
0 m_usage 0.84 357
0 m_usage 0.86 1326
0 m_usage 0.97 742
0 m_usage 0.84 357
0 m_usage 0.86 1395
0 m_usage 0.96 750
0 m_usage 0.84 357
0 m_usage 0.87 1310
0 m_usage 0.98 673
0 m_usage 0.84 357
0 m_usage 0.87 1379
0 m_usage 0.98 735
0 m_usage 0.84 357
0 m_usage 0.87 1379
0 m_usage 0.97 742
0 m_usage 0.85 353
0 m_usage 0.88 1295
0 m_usage 0.98 735
0 m_usage 0.87 1655
0 m_usage 0.96 750
0 m_usage 0.84 214
